{
    "_links": {
        "self": {
            "href": "http:\/\/default\/node\/3?_format=hal_json"
        },
        "type": {
            "href": "http:\/\/drupal.org\/rest\/type\/node\/article"
        },
        "http:\/\/drupal.org\/rest\/relation\/node\/article\/revision_uid": [
            {
                "href": "http:\/\/default\/user\/1?_format=hal_json"
            }
        ],
        "http:\/\/drupal.org\/rest\/relation\/node\/article\/uid": [
            {
                "href": "http:\/\/default\/user\/1?_format=hal_json",
                "lang": "en"
            }
        ]
    },
    "nid": [
        {
            "value": 3
        }
    ],
    "uuid": [
        {
            "value": "1d8c4a79-af40-476b-b769-30a0b3d84f22"
        }
    ],
    "vid": [
        {
            "value": 12
        }
    ],
    "langcode": [
        {
            "value": "en",
            "lang": "en"
        }
    ],
    "type": [
        {
            "target_id": "article"
        }
    ],
    "revision_timestamp": [
        {
            "value": "2019-06-02T10:22:32+00:00",
            "format": "Y-m-d\\TH:i:sP"
        }
    ],
    "_embedded": {
        "http:\/\/drupal.org\/rest\/relation\/node\/article\/revision_uid": [
            {
                "_links": {
                    "self": {
                        "href": "http:\/\/default\/user\/1?_format=hal_json"
                    },
                    "type": {
                        "href": "http:\/\/drupal.org\/rest\/type\/user\/user"
                    }
                },
                "uuid": [
                    {
                        "value": "ed854d8e-1da9-4808-8780-d8e2a6869d72"
                    }
                ]
            }
        ],
        "http:\/\/drupal.org\/rest\/relation\/node\/article\/uid": [
            {
                "_links": {
                    "self": {
                        "href": "http:\/\/default\/user\/1?_format=hal_json"
                    },
                    "type": {
                        "href": "http:\/\/drupal.org\/rest\/type\/user\/user"
                    }
                },
                "uuid": [
                    {
                        "value": "ed854d8e-1da9-4808-8780-d8e2a6869d72"
                    }
                ],
                "lang": "en"
            }
        ]
    },
    "status": [
        {
            "value": true,
            "lang": "en"
        }
    ],
    "title": [
        {
            "value": "In sit amet risus eu nisl",
            "lang": "en"
        }
    ],
    "created": [
        {
            "value": "2019-05-29T20:03:13+00:00",
            "lang": "en",
            "format": "Y-m-d\\TH:i:sP"
        }
    ],
    "changed": [
        {
            "value": "2019-06-02T10:22:32+00:00",
            "lang": "en",
            "format": "Y-m-d\\TH:i:sP"
        }
    ],
    "promote": [
        {
            "value": false,
            "lang": "en"
        }
    ],
    "sticky": [
        {
            "value": false,
            "lang": "en"
        }
    ],
    "default_langcode": [
        {
            "value": true,
            "lang": "en"
        }
    ],
    "revision_translation_affected": [
        {
            "value": true,
            "lang": "en"
        }
    ],
    "path": [
        {
            "alias": null,
            "pid": null,
            "langcode": "en",
            "lang": "en"
        }
    ],
    "body": [
        {
            "value": "<p>Nullam volutpat ut massa et pharetra. In sit amet risus eu nisl viverra commodo vitae at nulla. Quisque in urna elit. Phasellus rutrum tellus nisi, nec feugiat mauris commodo id. Morbi tempus turpis sed tortor vestibulum, at fringilla mi lacinia. Class aptent taciti sociosqu ad litora torquent per conubia nostra, per inceptos himenaeos. Mauris molestie lectus quis ligula semper dapibus.<\/p>\r\n\r\n<p>Nunc mollis quam a tristique viverra. Cras efficitur ligula interdum, posuere metus et, interdum enim. Vestibulum sapien orci, blandit tristique sapien at, eleifend rhoncus magna. Sed consectetur metus ligula, vel accumsan sem malesuada vel. Vivamus eget ipsum quis eros malesuada efficitur non sit amet urna. Aliquam commodo felis ac mauris ultrices, at luctus sem eleifend. Duis molestie tempor mi quis tempor.<\/p>\r\n",
            "format": "basic_html",
            "processed": "<p>Nullam volutpat ut massa et pharetra. In sit amet risus eu nisl viverra commodo vitae at nulla. Quisque in urna elit. Phasellus rutrum tellus nisi, nec feugiat mauris commodo id. Morbi tempus turpis sed tortor vestibulum, at fringilla mi lacinia. Class aptent taciti sociosqu ad litora torquent per conubia nostra, per inceptos himenaeos. Mauris molestie lectus quis ligula semper dapibus.<\/p>\n\n<p>Nunc mollis quam a tristique viverra. Cras efficitur ligula interdum, posuere metus et, interdum enim. Vestibulum sapien orci, blandit tristique sapien at, eleifend rhoncus magna. Sed consectetur metus ligula, vel accumsan sem malesuada vel. Vivamus eget ipsum quis eros malesuada efficitur non sit amet urna. Aliquam commodo felis ac mauris ultrices, at luctus sem eleifend. Duis molestie tempor mi quis tempor.<\/p>",
            "summary": "",
            "lang": "en"
        }
    ],
    "comment": [
        {
            "status": 2,
            "cid": 0,
            "last_comment_timestamp": 1559160270,
            "last_comment_name": null,
            "last_comment_uid": 1,
            "comment_count": 0,
            "lang": "en"
        }
    ],
    "field_external_image": [
        {
            "value": "https:\/\/cdn.pixabay.com\/photo\/2016\/11\/19\/12\/54\/cake-1839134_1280.jpg"
        }
    ]
}